display_decoder.vcd
$date
	Tue Apr  8 20:01:07 2025
$end
$version
	Icarus Verilog
$end
$timescale
	1ps
$end
$scope module display_decoder_tb $end
$scope module uut $end
$var wire 1 ! busy $end
$var wire 1 " clk $end
$var wire 16 # data [15:0] $end
$var wire 2 $ digit_count [1:0] $end
$var wire 1 % led_data $end
$var wire 1 & next_led $end
$var wire 1 ' rst $end
$var wire 5 ( current_digit [4:0] $end
$var reg 1 ) busy_reg $end
$var reg 4 * current_digit_index_reg [3:0] $end
$var reg 3 + current_segment_reg [2:0] $end
$var reg 16 , data_reg [15:0] $end
$var reg 2 - digit_count_reg [1:0] $end
$var reg 1 . led_data_reg $end
$var reg 7 / segments [6:0] $end
$var reg 1 0 state $end
$upscope $end
$upscope $end
$enddefinitions $end
$comment Show the parameter values. $end
$dumpall
$end
#0
$dumpvars
x0
b1111111 /
x.
bx -
bx ,
bx +
bx *
0)
bx (
1'
0&
x%
b0 $
b0 #
0"
0!
$end
#5000
b0 *
00
1"
#10000
0"
#15000
1"
#20000
0"
0'
#25000
1"
#30000
0"
1&
b11001 #
b10 $
#35000
b1101101 /
b101 (
10
1%
1.
b1 +
1!
1)
b11001 ,
b10 -
1"
#40000
0"
0&
#45000
1"
#50000
0"
1&
#55000
b10 +
0%
0.
1"
#60000
0"
0&
#65000
1"
#70000
0"
1&
#75000
b11 +
1%
1.
1"
#80000
0"
0&
#85000
1"
#90000
0"
1&
#95000
b100 +
1"
#100000
0"
0&
#105000
1"
#110000
0"
1&
#115000
b101 +
0%
0.
1"
#120000
0"
0&
#125000
1"
#130000
0"
1&
#135000
b110 +
1%
1.
1"
#140000
0"
0&
#145000
1"
#150000
0"
1&
#155000
b1 *
b0 +
b110111 /
b10 (
b10 ,
1"
#160000
0"
0&
#165000
1"
#170000
0"
1&
#175000
b1 +
1"
#180000
0"
0&
#185000
1"
#190000
0"
1&
#195000
b10 +
1"
#200000
0"
0&
#205000
1"
#210000
0"
1&
#215000
b11 +
1"
#220000
0"
0&
#225000
1"
#230000
0"
1&
#235000
b100 +
0%
0.
1"
#240000
0"
0&
#245000
1"
#250000
0"
1&
#255000
b101 +
1%
1.
1"
#260000
0"
0&
#265000
1"
#270000
0"
1&
#275000
b110 +
1"
#280000
0"
0&
#285000
1"
#290000
0"
1&
#295000
0!
0)
b10 *
b0 +
0%
0.
b1111110 /
b0 (
00
b0 ,
1"
#300000
0"
0&
