led_driver.vcd
$date
	Tue Apr  8 15:47:35 2025
$end
$version
	Icarus Verilog
$end
$timescale
	1ps
$end
$scope module tb_top $end
$var wire 1 ! i2c_scl $end
$var wire 1 " i2c_sda $end
$var wire 8 # xd [7:0] $end
$var wire 6 $ leds [5:0] $end
$var wire 1 % led_out $end
$var parameter 32 & CLK_FREQ $end
$var parameter 32 ' CLK_PERIOD $end
$var reg 1 ( clk $end
$scope module uut $end
$var wire 1 ( clk_27M $end
$var wire 1 ! i2c_scl_pin $end
$var wire 1 " i2c_sda_pin $end
$var wire 1 ) scl_i $end
$var wire 1 * sda_i $end
$var wire 1 + sda_t $end
$var wire 1 , sda_o $end
$var wire 1 - scl_t $end
$var wire 1 . scl_o $end
$var wire 1 % led_out $end
$var wire 1 / i2c_rx_valid $end
$var wire 1 0 i2c_rx_last $end
$var wire 8 1 i2c_rx_data [7:0] $end
$var wire 1 2 i2c_data_ready $end
$var wire 1 3 i2c_cmd_ready $end
$var wire 1 4 i2c_busy $end
$var reg 3 5 data_counter [2:0] $end
$var reg 24 6 delay_counter [23:0] $end
$var reg 7 7 i2c_cmd_addr [6:0] $end
$var reg 1 8 i2c_cmd_read $end
$var reg 1 9 i2c_cmd_start $end
$var reg 1 : i2c_cmd_stop $end
$var reg 1 ; i2c_cmd_valid $end
$var reg 1 < i2c_cmd_write $end
$var reg 1 = i2c_data_last $end
$var reg 8 > i2c_data_tdata [7:0] $end
$var reg 1 ? i2c_data_valid $end
$var reg 6 @ leds [5:0] $end
$var reg 1 A reset $end
$var reg 4 B reset_counter [3:0] $end
$var reg 8 C touch_status_high [7:0] $end
$var reg 8 D touch_status_low [7:0] $end
$var reg 8 E xd [7:0] $end
$var integer 32 F current_state [31:0] $end
$var integer 32 G next_state [31:0] $end
$scope module i2c $end
$var wire 1 H bus_active $end
$var wire 1 I bus_control $end
$var wire 1 4 busy $end
$var wire 1 ( clk $end
$var wire 8 J m_axis_data_tdata [7:0] $end
$var wire 1 0 m_axis_data_tlast $end
$var wire 1 K m_axis_data_tready $end
$var wire 1 / m_axis_data_tvalid $end
$var wire 1 L missed_ack $end
$var wire 16 M prescale [15:0] $end
$var wire 1 A rst $end
$var wire 7 N s_axis_cmd_address [6:0] $end
$var wire 1 8 s_axis_cmd_read $end
$var wire 1 3 s_axis_cmd_ready $end
$var wire 1 9 s_axis_cmd_start $end
$var wire 1 : s_axis_cmd_stop $end
$var wire 1 ; s_axis_cmd_valid $end
$var wire 1 < s_axis_cmd_write $end
$var wire 1 O s_axis_cmd_write_multiple $end
$var wire 8 P s_axis_data_tdata [7:0] $end
$var wire 1 = s_axis_data_tlast $end
$var wire 1 2 s_axis_data_tready $end
$var wire 1 ? s_axis_data_tvalid $end
$var wire 1 ) scl_i $end
$var wire 1 Q scl_negedge $end
$var wire 1 . scl_o $end
$var wire 1 R scl_posedge $end
$var wire 1 - scl_t $end
$var wire 1 * sda_i $end
$var wire 1 S sda_negedge $end
$var wire 1 , sda_o $end
$var wire 1 T sda_posedge $end
$var wire 1 + sda_t $end
$var wire 1 U start_bit $end
$var wire 1 V stop_bit $end
$var wire 1 W stop_on_idle $end
$var parameter 5 X PHY_STATE_ACTIVE $end
$var parameter 5 Y PHY_STATE_IDLE $end
$var parameter 5 Z PHY_STATE_READ_BIT_1 $end
$var parameter 5 [ PHY_STATE_READ_BIT_2 $end
$var parameter 5 \ PHY_STATE_READ_BIT_3 $end
$var parameter 5 ] PHY_STATE_READ_BIT_4 $end
$var parameter 5 ^ PHY_STATE_REPEATED_START_1 $end
$var parameter 5 _ PHY_STATE_REPEATED_START_2 $end
$var parameter 5 ` PHY_STATE_START_1 $end
$var parameter 5 a PHY_STATE_START_2 $end
$var parameter 5 b PHY_STATE_STOP_1 $end
$var parameter 5 c PHY_STATE_STOP_2 $end
$var parameter 5 d PHY_STATE_STOP_3 $end
$var parameter 5 e PHY_STATE_WRITE_BIT_1 $end
$var parameter 5 f PHY_STATE_WRITE_BIT_2 $end
$var parameter 5 g PHY_STATE_WRITE_BIT_3 $end
$var parameter 5 h STATE_ACTIVE_READ $end
$var parameter 5 i STATE_ACTIVE_WRITE $end
$var parameter 5 j STATE_ADDRESS_1 $end
$var parameter 5 k STATE_ADDRESS_2 $end
$var parameter 5 l STATE_IDLE $end
$var parameter 5 m STATE_READ $end
$var parameter 5 n STATE_START $end
$var parameter 5 o STATE_START_WAIT $end
$var parameter 5 p STATE_STOP $end
$var parameter 5 q STATE_WRITE_1 $end
$var parameter 5 r STATE_WRITE_2 $end
$var parameter 5 s STATE_WRITE_3 $end
$var reg 7 t addr_next [6:0] $end
$var reg 7 u addr_reg [6:0] $end
$var reg 4 v bit_count_next [3:0] $end
$var reg 4 w bit_count_reg [3:0] $end
$var reg 1 x bus_active_reg $end
$var reg 1 y bus_control_next $end
$var reg 1 z bus_control_reg $end
$var reg 1 { busy_reg $end
$var reg 8 | data_next [7:0] $end
$var reg 8 } data_reg [7:0] $end
$var reg 17 ~ delay_next [16:0] $end
$var reg 17 !" delay_reg [16:0] $end
$var reg 1 "" delay_scl_next $end
$var reg 1 #" delay_scl_reg $end
$var reg 1 $" delay_sda_next $end
$var reg 1 %" delay_sda_reg $end
$var reg 1 &" last_next $end
$var reg 1 '" last_reg $end
$var reg 1 (" last_scl_i_reg $end
$var reg 1 )" last_sda_i_reg $end
$var reg 8 *" m_axis_data_tdata_next [7:0] $end
$var reg 8 +" m_axis_data_tdata_reg [7:0] $end
$var reg 1 ," m_axis_data_tlast_next $end
$var reg 1 -" m_axis_data_tlast_reg $end
$var reg 1 ." m_axis_data_tvalid_next $end
$var reg 1 /" m_axis_data_tvalid_reg $end
$var reg 1 0" missed_ack_next $end
$var reg 1 1" missed_ack_reg $end
$var reg 1 2" mode_read_next $end
$var reg 1 3" mode_read_reg $end
$var reg 1 4" mode_stop_next $end
$var reg 1 5" mode_stop_reg $end
$var reg 1 6" mode_write_multiple_next $end
$var reg 1 7" mode_write_multiple_reg $end
$var reg 1 8" phy_read_bit $end
$var reg 1 9" phy_release_bus $end
$var reg 1 :" phy_rx_data_next $end
$var reg 1 ;" phy_rx_data_reg $end
$var reg 1 <" phy_start_bit $end
$var reg 5 =" phy_state_next [4:0] $end
$var reg 5 >" phy_state_reg [4:0] $end
$var reg 1 ?" phy_stop_bit $end
$var reg 1 @" phy_tx_data $end
$var reg 1 A" phy_write_bit $end
$var reg 1 B" s_axis_cmd_ready_next $end
$var reg 1 C" s_axis_cmd_ready_reg $end
$var reg 1 D" s_axis_data_tready_next $end
$var reg 1 E" s_axis_data_tready_reg $end
$var reg 1 F" scl_i_reg $end
$var reg 1 G" scl_o_next $end
$var reg 1 H" scl_o_reg $end
$var reg 1 I" sda_i_reg $end
$var reg 1 J" sda_o_next $end
$var reg 1 K" sda_o_reg $end
$var reg 5 L" state_next [4:0] $end
$var reg 5 M" state_reg [4:0] $end
$upscope $end
$upscope $end
$upscope $end
$enddefinitions $end
$comment Show the parameter values. $end
$dumpall
b1001 s
b1000 r
b111 q
b1011 p
b11 o
b100 n
b1010 m
b0 l
b110 k
b101 j
b1 i
b10 h
b1000 g
b111 f
b110 e
b1111 d
b1110 c
b1101 b
b101 a
b100 `
b11 _
b10 ^
b1100 ]
b1011 \
b1010 [
b1001 Z
b0 Y
b1 X
b100101 '
b1100110111111110011000000 &
$end
#0
$dumpvars
b0 M"
b0 L"
1K"
1J"
1I"
1H"
1G"
1F"
0E"
0D"
0C"
1B"
0A"
0@"
0?"
b0 >"
b0 ="
0<"
0;"
0:"
09"
08"
07"
06"
05"
04"
03"
02"
01"
00"
0/"
0."
0-"
0,"
b0 +"
b0 *"
1)"
1("
0'"
0&"
0%"
0$"
0#"
0""
b0 !"
b0 ~
b0 }
b0 |
0{
0z
0y
0x
b0 w
b0 v
b0 u
b0 t
0W
0V
0U
0T
0S
0R
0Q
bx P
0O
bx N
b1000011 M
0L
1K
b0 J
0I
0H
b0 G
b0 F
bx E
bx D
bx C
b0 B
1A
bx @
x?
bx >
x=
x<
x;
x:
x9
x8
bx 7
bx 6
bx 5
04
03
02
b0 1
00
0/
1.
1-
1,
1+
1*
1)
0(
x%
bx $
bx #
1"
1!
$end
#18000
1B"
03
0C"
b1 B
b0 6
0%
b0 $
b0 @
b0 C
b0 D
b0 5
b0 #
b0 E
1(
#36000
0(
#54000
1B"
b10 B
03
0C"
1(
#72000
0(
#90000
1B"
03
0C"
b11 B
1(
#108000
0(
#126000
1B"
b100 B
03
0C"
1(
#144000
0(
#162000
1B"
03
0C"
b101 B
1(
#180000
0(
#198000
1B"
b110 B
03
0C"
1(
#216000
0(
#234000
1B"
03
0C"
b111 B
1(
#252000
0(
#270000
1B"
b1000 B
03
0C"
1(
#288000
0(
#306000
1B"
03
0C"
b1001 B
1(
#324000
0(
#342000
1B"
b1010 B
03
0C"
1(
#360000
0(
#378000
1B"
03
0C"
b1011 B
1(
#396000
0(
#414000
1B"
b1100 B
03
0C"
1(
#432000
0(
#450000
1B"
03
0C"
b1101 B
1(
#468000
0(
#486000
1B"
b1110 B
03
0C"
1(
#504000
0(
#522000
1B"
03
0C"
b1111 B
1(
#540000
0(
#558000
1B"
0A
03
0C"
1(
#576000
0(
#594000
1B"
13
1C"
b1 G
0=
0?
0;
0:
0<
08
09
1(
#612000
0(
#630000
b1 F
1(
#648000
0(
#666000
b100 ="
b1000011 ~
0J"
b101 L"
b1000 v
1<"
14"
b1011010 t
0B"
b10 G
b10000000 >
b10000000 P
1;
1:
1<
19
b1011010 7
b1011010 N
1(
#684000
0(
#702000
0*
0"
b1000010 ~
b100 ="
0<"
b101 L"
0+
0,
0K"
03
0C"
b1000 w
b1000011 !"
15"
b1011010 u
b100 >"
b101 M"
1;
1:
1<
19
b10 F
1(
#720000
0(
#738000
1U
1S
b1000001 ~
b100 ="
b101 L"
14
1{
0I"
b1000010 !"
0;
0:
0<
09
1(
#756000
0(
#774000
0U
b101 L"
0S
b1000000 ~
b100 ="
1H
1x
0)"
b1000001 !"
1(
#792000
0(
#810000
b111111 ~
b100 ="
b1000000 !"
1(
#828000
0(
#846000
b111110 ~
b100 ="
b111111 !"
1(
#864000
0(
#882000
b111101 ~
b100 ="
b111110 !"
1(
#900000
0(
#918000
b111100 ~
b100 ="
b111101 !"
1(
#936000
0(
#954000
b111011 ~
b100 ="
b111100 !"
1(
#972000
0(
#990000
b111010 ~
b100 ="
b111011 !"
1(
#1008000
0(
#1026000
b111001 ~
b100 ="
b111010 !"
1(
#1044000
0(
#1062000
b111000 ~
b100 ="
b111001 !"
1(
#1080000
0(
#1098000
b110111 ~
b100 ="
b111000 !"
1(
#1116000
0(
#1134000
b110110 ~
b100 ="
b110111 !"
1(
#1152000
0(
#1170000
b110101 ~
b100 ="
b110110 !"
1(
#1188000
0(
#1206000
b110100 ~
b100 ="
b110101 !"
1(
#1224000
0(
#1242000
b110011 ~
b100 ="
b110100 !"
1(
#1260000
0(
#1278000
b110010 ~
b100 ="
b110011 !"
1(
#1296000
0(
#1314000
b110001 ~
b100 ="
b110010 !"
1(
#1332000
0(
#1350000
b110000 ~
b100 ="
b110001 !"
1(
#1368000
0(
#1386000
b101111 ~
b100 ="
b110000 !"
1(
#1404000
0(
#1422000
b101110 ~
b100 ="
b101111 !"
1(
#1440000
0(
#1458000
b101101 ~
b100 ="
b101110 !"
1(
#1476000
0(
#1494000
b101100 ~
b100 ="
b101101 !"
1(
#1512000
0(
#1530000
b101011 ~
b100 ="
b101100 !"
1(
#1548000
0(
#1566000
b101010 ~
b100 ="
b101011 !"
1(
#1584000
0(
#1602000
b101001 ~
b100 ="
b101010 !"
1(
#1620000
0(
#1638000
b101000 ~
b100 ="
b101001 !"
1(
#1656000
0(
#1674000
b100111 ~
b100 ="
b101000 !"
1(
#1692000
0(
#1710000
b100110 ~
b100 ="
b100111 !"
1(
#1728000
0(
#1746000
b100101 ~
b100 ="
b100110 !"
1(
#1764000
0(
#1782000
b100100 ~
b100 ="
b100101 !"
1(
#1800000
0(
#1818000
b100011 ~
b100 ="
b100100 !"
1(
#1836000
0(
#1854000
b100010 ~
b100 ="
b100011 !"
1(
#1872000
0(
#1890000
b100001 ~
b100 ="
b100010 !"
1(
#1908000
0(
#1926000
b100000 ~
b100 ="
b100001 !"
1(
#1944000
0(
#1962000
b11111 ~
b100 ="
b100000 !"
1(
#1980000
0(
#1998000
b11110 ~
b100 ="
b11111 !"
1(
#2016000
0(
#2034000
b11101 ~
b100 ="
b11110 !"
1(
#2052000
0(
#2070000
b11100 ~
b100 ="
b11101 !"
1(
#2088000
0(
#2106000
b11011 ~
b100 ="
b11100 !"
1(
#2124000
0(
#2142000
b11010 ~
b100 ="
b11011 !"
1(
#2160000
0(
#2178000
b11001 ~
b100 ="
b11010 !"
1(
#2196000
0(
#2214000
b11000 ~
b100 ="
b11001 !"
1(
#2232000
0(
#2250000
b10111 ~
b100 ="
b11000 !"
1(
#2268000
0(
#2286000
b10110 ~
b100 ="
b10111 !"
1(
#2304000
0(
#2322000
b10101 ~
b100 ="
b10110 !"
1(
#2340000
0(
#2358000
b10100 ~
b100 ="
b10101 !"
1(
#2376000
0(
#2394000
b10011 ~
b100 ="
b10100 !"
1(
#2412000
0(
#2430000
b10010 ~
b100 ="
b10011 !"
1(
#2448000
0(
#2466000
b10001 ~
b100 ="
b10010 !"
1(
#2484000
0(
#2502000
b10000 ~
b100 ="
b10001 !"
1(
#2520000
0(
#2538000
b1111 ~
b100 ="
b10000 !"
1(
#2556000
0(
#2574000
b1110 ~
b100 ="
b1111 !"
1(
#2592000
0(
#2610000
b1101 ~
b100 ="
b1110 !"
1(
#2628000
0(
#2646000
b1100 ~
b100 ="
b1101 !"
1(
#2664000
0(
#2682000
b1011 ~
b100 ="
b1100 !"
1(
#2700000
0(
#2718000
b1010 ~
b100 ="
b1011 !"
1(
#2736000
0(
#2754000
b1001 ~
b100 ="
b1010 !"
1(
#2772000
0(
#2790000
b1000 ~
b100 ="
b1001 !"
1(
#2808000
0(
#2826000
b111 ~
b100 ="
b1000 !"
1(
#2844000
0(
#2862000
b110 ~
b100 ="
b111 !"
1(
#2880000
0(
#2898000
b101 ~
b100 ="
b110 !"
1(
#2916000
0(
#2934000
b100 ~
b100 ="
b101 !"
1(
#2952000
0(
#2970000
b11 ~
b100 ="
b100 !"
1(
#2988000
0(
#3006000
b10 ~
b100 ="
b11 !"
1(
#3024000
0(
#3042000
b1 ~
b100 ="
b10 !"
1(
#3060000
0(
#3078000
b0 ~
b100 ="
b1 !"
1(
#3096000
0(
#3114000
b1000011 ~
0G"
b101 ="
b0 !"
1(
#3132000
0(
#3150000
0)
0!
b1000010 ~
b101 ="
b101 L"
0-
0.
0H"
b1000011 !"
b101 >"
1(
#3168000
0(
#3186000
1Q
b1000001 ~
b101 ="
0F"
b1000010 !"
1(
#3204000
0(
#3222000
0Q
b1000000 ~
b101 ="
0("
b1000001 !"
1(
#3240000
0(
#3258000
b111111 ~
b101 ="
b1000000 !"
1(
#3276000
0(
#3294000
b111110 ~
b101 ="
b111111 !"
1(
#3312000
0(
#3330000
b111101 ~
b101 ="
b111110 !"
1(
#3348000
0(
#3366000
b111100 ~
b101 ="
b111101 !"
1(
#3384000
0(
#3402000
b111011 ~
b101 ="
b111100 !"
1(
#3420000
0(
#3438000
b111010 ~
b101 ="
b111011 !"
1(
#3456000
0(
#3474000
b111001 ~
b101 ="
b111010 !"
1(
#3492000
0(
#3510000
b111000 ~
b101 ="
b111001 !"
1(
#3528000
0(
#3546000
b110111 ~
b101 ="
b111000 !"
1(
#3564000
0(
#3582000
b110110 ~
b101 ="
b110111 !"
1(
#3600000
0(
#3618000
b110101 ~
b101 ="
b110110 !"
1(
#3636000
0(
#3654000
b110100 ~
b101 ="
b110101 !"
1(
#3672000
0(
#3690000
b110011 ~
b101 ="
b110100 !"
1(
#3708000
0(
#3726000
b110010 ~
b101 ="
b110011 !"
1(
#3744000
0(
#3762000
b110001 ~
b101 ="
b110010 !"
1(
#3780000
0(
#3798000
b110000 ~
b101 ="
b110001 !"
1(
#3816000
0(
#3834000
b101111 ~
b101 ="
b110000 !"
1(
#3852000
0(
#3870000
b101110 ~
b101 ="
b101111 !"
1(
#3888000
0(
#3906000
b101101 ~
b101 ="
b101110 !"
1(
#3924000
0(
#3942000
b101100 ~
b101 ="
b101101 !"
1(
#3960000
0(
#3978000
b101011 ~
b101 ="
b101100 !"
1(
#3996000
0(
#4014000
b101010 ~
b101 ="
b101011 !"
1(
#4032000
0(
#4050000
b101001 ~
b101 ="
b101010 !"
1(
#4068000
0(
#4086000
b101000 ~
b101 ="
b101001 !"
1(
#4104000
0(
#4122000
b100111 ~
b101 ="
b101000 !"
1(
#4140000
0(
#4158000
b100110 ~
b101 ="
b100111 !"
1(
#4176000
0(
#4194000
b100101 ~
b101 ="
b100110 !"
1(
#4212000
0(
#4230000
b100100 ~
b101 ="
b100101 !"
1(
#4248000
0(
#4266000
b100011 ~
b101 ="
b100100 !"
1(
#4284000
0(
#4302000
b100010 ~
b101 ="
b100011 !"
1(
#4320000
0(
#4338000
b100001 ~
b101 ="
b100010 !"
1(
#4356000
0(
#4374000
b100000 ~
b101 ="
b100001 !"
1(
#4392000
0(
#4410000
b11111 ~
b101 ="
b100000 !"
1(
#4428000
0(
#4446000
b11110 ~
b101 ="
b11111 !"
1(
#4464000
0(
#4482000
b11101 ~
b101 ="
b11110 !"
1(
#4500000
0(
#4518000
b11100 ~
b101 ="
b11101 !"
1(
#4536000
0(
#4554000
b11011 ~
b101 ="
b11100 !"
1(
#4572000
0(
#4590000
b11010 ~
b101 ="
b11011 !"
1(
#4608000
0(
#4626000
b11001 ~
b101 ="
b11010 !"
1(
#4644000
0(
#4662000
b11000 ~
b101 ="
b11001 !"
1(
#4680000
0(
#4698000
b10111 ~
b101 ="
b11000 !"
1(
#4716000
0(
#4734000
b10110 ~
b101 ="
b10111 !"
1(
#4752000
0(
#4770000
b10101 ~
b101 ="
b10110 !"
1(
#4788000
0(
#4806000
b10100 ~
b101 ="
b10101 !"
1(
#4824000
0(
#4842000
b10011 ~
b101 ="
b10100 !"
1(
#4860000
0(
#4878000
b10010 ~
b101 ="
b10011 !"
1(
#4896000
0(
#4914000
b10001 ~
b101 ="
b10010 !"
1(
#4932000
0(
#4950000
b10000 ~
b101 ="
b10001 !"
1(
#4968000
0(
#4986000
b1111 ~
b101 ="
b10000 !"
1(
#5004000
0(
#5022000
b1110 ~
b101 ="
b1111 !"
1(
#5040000
0(
#5058000
b1101 ~
b101 ="
b1110 !"
1(
#5076000
0(
#5094000
b1100 ~
b101 ="
b1101 !"
1(
#5112000
0(
#5130000
b1011 ~
b101 ="
b1100 !"
1(
#5148000
0(
#5166000
b1010 ~
b101 ="
b1011 !"
1(
#5184000
0(
#5202000
b1001 ~
b101 ="
b1010 !"
1(
#5220000
0(
#5238000
b1000 ~
b101 ="
b1001 !"
1(
#5256000
0(
#5274000
b111 ~
b101 ="
b1000 !"
1(
#5292000
0(
#5310000
b110 ~
b101 ="
b111 !"
1(
#5328000
0(
#5346000
b101 ~
b101 ="
b110 !"
1(
#5364000
0(
#5382000
b100 ~
b101 ="
b101 !"
1(
#5400000
0(
#5418000
b11 ~
b101 ="
b100 !"
1(
#5436000
0(
#5454000
b10 ~
b101 ="
b11 !"
1(
#5472000
0(
#5490000
b1 ~
b101 ="
b10 !"
1(
#5508000
0(
#5526000
b0 ~
b101 ="
b1 !"
1(
#5544000
0(
#5562000
1y
b1 ="
b0 !"
1(
#5580000
0(
#5598000
b1000011 ~
1J"
b110 ="
1@"
1A"
b111 v
b101 L"
1I
1z
b1 >"
1(
#5616000
0(
#5634000
1*
1"
b1000010 ~
b110 ="
0@"
0A"
b101 L"
1+
1,
1K"
b111 w
b1000011 !"
b110 >"
1(
#5652000
0(
#5670000
1T
b1000001 ~
b110 ="
1I"
b1000010 !"
1(
#5688000
0(
#5706000
0T
b1000000 ~
b110 ="
1)"
b1000001 !"
1(
#5724000
0(
#5742000
b111111 ~
b110 ="
b1000000 !"
1(
#5760000
0(
#5778000
b111110 ~
b110 ="
b111111 !"
1(
#5796000
0(
#5814000
b111101 ~
b110 ="
b111110 !"
1(
#5832000
0(
#5850000
b111100 ~
b110 ="
b111101 !"
1(
#5868000
0(
#5886000
b111011 ~
b110 ="
b111100 !"
1(
#5904000
0(
#5922000
b111010 ~
b110 ="
b111011 !"
1(
#5940000
0(
#5958000
b111001 ~
b110 ="
b111010 !"
1(
#5976000
0(
#5994000
b111000 ~
b110 ="
b111001 !"
1(
#6012000
0(
#6030000
b110111 ~
b110 ="
b111000 !"
1(
#6048000
0(
#6066000
b110110 ~
b110 ="
b110111 !"
1(
#6084000
0(
#6102000
b110101 ~
b110 ="
b110110 !"
1(
#6120000
0(
#6138000
b110100 ~
b110 ="
b110101 !"
1(
#6156000
0(
#6174000
b110011 ~
b110 ="
b110100 !"
1(
#6192000
0(
#6210000
b110010 ~
b110 ="
b110011 !"
1(
#6228000
0(
#6246000
b110001 ~
b110 ="
b110010 !"
1(
#6264000
0(
#6282000
b110000 ~
b110 ="
b110001 !"
1(
#6300000
0(
#6318000
b101111 ~
b110 ="
b110000 !"
1(
#6336000
0(
#6354000
b101110 ~
b110 ="
b101111 !"
1(
#6372000
0(
#6390000
b101101 ~
b110 ="
b101110 !"
1(
#6408000
0(
#6426000
b101100 ~
b110 ="
b101101 !"
1(
#6444000
0(
#6462000
b101011 ~
b110 ="
b101100 !"
1(
#6480000
0(
#6498000
b101010 ~
b110 ="
b101011 !"
1(
#6516000
0(
#6534000
b101001 ~
b110 ="
b101010 !"
1(
#6552000
0(
#6570000
b101000 ~
b110 ="
b101001 !"
1(
#6588000
0(
#6606000
b100111 ~
b110 ="
b101000 !"
1(
#6624000
0(
#6642000
b100110 ~
b110 ="
b100111 !"
1(
#6660000
0(
#6678000
b100101 ~
b110 ="
b100110 !"
1(
#6696000
0(
#6714000
b100100 ~
b110 ="
b100101 !"
1(
#6732000
0(
#6750000
b100011 ~
b110 ="
b100100 !"
1(
#6768000
0(
#6786000
b100010 ~
b110 ="
b100011 !"
1(
#6804000
0(
#6822000
b100001 ~
b110 ="
b100010 !"
1(
#6840000
0(
#6858000
b100000 ~
b110 ="
b100001 !"
1(
#6876000
0(
#6894000
b11111 ~
b110 ="
b100000 !"
1(
#6912000
0(
#6930000
b11110 ~
b110 ="
b11111 !"
1(
#6948000
0(
#6966000
b11101 ~
b110 ="
b11110 !"
1(
#6984000
0(
#7002000
b11100 ~
b110 ="
b11101 !"
1(
#7020000
0(
#7038000
b11011 ~
b110 ="
b11100 !"
1(
#7056000
0(
#7074000
b11010 ~
b110 ="
b11011 !"
1(
#7092000
0(
#7110000
b11001 ~
b110 ="
b11010 !"
1(
#7128000
0(
#7146000
b11000 ~
b110 ="
b11001 !"
1(
#7164000
0(
#7182000
b10111 ~
b110 ="
b11000 !"
1(
#7200000
0(
#7218000
b10110 ~
b110 ="
b10111 !"
1(
#7236000
0(
#7254000
b10101 ~
b110 ="
b10110 !"
1(
#7272000
0(
#7290000
b10100 ~
b110 ="
b10101 !"
1(
#7308000
0(
#7326000
b10011 ~
b110 ="
b10100 !"
1(
#7344000
0(
#7362000
b10010 ~
b110 ="
b10011 !"
1(
#7380000
0(
#7398000
b10001 ~
b110 ="
b10010 !"
1(
#7416000
0(
#7434000
b10000 ~
b110 ="
b10001 !"
1(
#7452000
0(
#7470000
b1111 ~
b110 ="
b10000 !"
1(
#7488000
0(
#7506000
b1110 ~
b110 ="
b1111 !"
1(
#7524000
0(
#7542000
b1101 ~
b110 ="
b1110 !"
1(
#7560000
0(
#7578000
b1100 ~
b110 ="
b1101 !"
1(
#7596000
0(
#7614000
b1011 ~
b110 ="
b1100 !"
1(
#7632000
0(
#7650000
b1010 ~
b110 ="
b1011 !"
1(
#7668000
0(
#7686000
b1001 ~
b110 ="
b1010 !"
1(
#7704000
0(
#7722000
b1000 ~
b110 ="
b1001 !"
1(
#7740000
0(
#7758000
b111 ~
b110 ="
b1000 !"
1(
#7776000
0(
#7794000
b110 ~
b110 ="
b111 !"
1(
#7812000
0(
#7830000
b101 ~
b110 ="
b110 !"
1(
#7848000
0(
#7866000
b100 ~
b110 ="
b101 !"
1(
#7884000
0(
#7902000
b11 ~
b110 ="
b100 !"
1(
#7920000
0(
#7938000
b10 ~
b110 ="
b11 !"
1(
#7956000
0(
#7974000
b1 ~
b110 ="
b10 !"
1(
#7992000
0(
#8010000
b0 ~
b110 ="
b1 !"
1(
#8028000
0(
#8046000
b10000110 ~
1""
1G"
b111 ="
b0 !"
1(
#8064000
0(
#8082000
1)
1!
b111 ="
b101 L"
1-
1.
1H"
1#"
b10000110 !"
b111 >"
1(
#8100000
0(
#8118000
0""
b111 ="
1R
1F"
1(
#8136000
0(
#8154000
0R
b10000101 ~
b111 ="
1("
0#"
1(
#8172000
0(
#8190000
b10000100 ~
b111 ="
b10000101 !"
1(
#8208000
0(
#8226000
b10000011 ~
b111 ="
b10000100 !"
1(
#8244000
0(
#8262000
b10000010 ~
b111 ="
b10000011 !"
1(
#8280000
0(
#8298000
b10000001 ~
b111 ="
b10000010 !"
1(
#8316000
0(
#8334000
b10000000 ~
b111 ="
b10000001 !"
1(
#8352000
0(
#8370000
b1111111 ~
b111 ="
b10000000 !"
1(
#8388000
0(
#8406000
b1111110 ~
b111 ="
b1111111 !"
1(
#8424000
0(
#8442000
b1111101 ~
b111 ="
b1111110 !"
1(
#8460000
0(
#8478000
b1111100 ~
b111 ="
b1111101 !"
1(
#8496000
0(
#8514000
b1111011 ~
b111 ="
b1111100 !"
1(
#8532000
0(
#8550000
b1111010 ~
b111 ="
b1111011 !"
1(
#8568000
0(
#8586000
b1111001 ~
b111 ="
b1111010 !"
1(
#8604000
0(
#8622000
b1111000 ~
b111 ="
b1111001 !"
1(
#8640000
0(
#8658000
b1110111 ~
b111 ="
b1111000 !"
1(
#8676000
0(
#8694000
b1110110 ~
b111 ="
b1110111 !"
1(
#8712000
0(
#8730000
b1110101 ~
b111 ="
b1110110 !"
1(
#8748000
0(
#8766000
b1110100 ~
b111 ="
b1110101 !"
1(
#8784000
0(
#8802000
b1110011 ~
b111 ="
b1110100 !"
1(
#8820000
0(
#8838000
b1110010 ~
b111 ="
b1110011 !"
1(
#8856000
0(
#8874000
b1110001 ~
b111 ="
b1110010 !"
1(
#8892000
0(
#8910000
b1110000 ~
b111 ="
b1110001 !"
1(
#8928000
0(
#8946000
b1101111 ~
b111 ="
b1110000 !"
1(
#8964000
0(
#8982000
b1101110 ~
b111 ="
b1101111 !"
1(
#9000000
0(
#9018000
b1101101 ~
b111 ="
b1101110 !"
1(
#9036000
0(
#9054000
b1101100 ~
b111 ="
b1101101 !"
1(
#9072000
0(
#9090000
b1101011 ~
b111 ="
b1101100 !"
1(
#9108000
0(
#9126000
b1101010 ~
b111 ="
b1101011 !"
1(
#9144000
0(
#9162000
b1101001 ~
b111 ="
b1101010 !"
1(
#9180000
0(
#9198000
b1101000 ~
b111 ="
b1101001 !"
1(
#9216000
0(
#9234000
b1100111 ~
b111 ="
b1101000 !"
1(
#9252000
0(
#9270000
b1100110 ~
b111 ="
b1100111 !"
1(
#9288000
0(
#9306000
b1100101 ~
b111 ="
b1100110 !"
1(
#9324000
0(
#9342000
b1100100 ~
b111 ="
b1100101 !"
1(
#9360000
0(
#9378000
b1100011 ~
b111 ="
b1100100 !"
1(
#9396000
0(
#9414000
b1100010 ~
b111 ="
b1100011 !"
1(
#9432000
0(
#9450000
b1100001 ~
b111 ="
b1100010 !"
1(
#9468000
0(
#9486000
b1100000 ~
b111 ="
b1100001 !"
1(
#9504000
0(
#9522000
b1011111 ~
b111 ="
b1100000 !"
1(
#9540000
0(
#9558000
b1011110 ~
b111 ="
b1011111 !"
1(
#9576000
0(
#9594000
b1011101 ~
b111 ="
b1011110 !"
1(
#9612000
0(
#9630000
b1011100 ~
b111 ="
b1011101 !"
1(
#9648000
0(
#9666000
b1011011 ~
b111 ="
b1011100 !"
1(
#9684000
0(
#9702000
b1011010 ~
b111 ="
b1011011 !"
1(
#9720000
0(
#9738000
b1011001 ~
b111 ="
b1011010 !"
1(
#9756000
0(
#9774000
b1011000 ~
b111 ="
b1011001 !"
1(
#9792000
0(
#9810000
b1010111 ~
b111 ="
b1011000 !"
1(
#9828000
0(
#9846000
b1010110 ~
b111 ="
b1010111 !"
1(
#9864000
0(
#9882000
b1010101 ~
b111 ="
b1010110 !"
1(
#9900000
0(
#9918000
b1010100 ~
b111 ="
b1010101 !"
1(
#9936000
0(
#9954000
b1010011 ~
b111 ="
b1010100 !"
1(
#9972000
0(
#9990000
b1010010 ~
b111 ="
b1010011 !"
1(
#10008000
0(
#10026000
b1010001 ~
b111 ="
b1010010 !"
1(
#10044000
0(
#10062000
b1010000 ~
b111 ="
b1010001 !"
1(
#10080000
0(
#10098000
b1001111 ~
b111 ="
b1010000 !"
1(
#10116000
0(
#10134000
b1001110 ~
b111 ="
b1001111 !"
1(
#10152000
0(
#10170000
b1001101 ~
b111 ="
b1001110 !"
1(
#10188000
0(
#10206000
b1001100 ~
b111 ="
b1001101 !"
1(
#10224000
0(
#10242000
b1001011 ~
b111 ="
b1001100 !"
1(
#10260000
0(
#10278000
b1001010 ~
b111 ="
b1001011 !"
1(
#10296000
0(
#10314000
b1001001 ~
b111 ="
b1001010 !"
1(
#10332000
0(
#10350000
b1001000 ~
b111 ="
b1001001 !"
1(
#10368000
0(
#10386000
b1000111 ~
b111 ="
b1001000 !"
1(
#10404000
0(
#10422000
b1000110 ~
b111 ="
b1000111 !"
1(
#10440000
0(
#10458000
b1000101 ~
b111 ="
b1000110 !"
1(
#10476000
0(
